%!PS-Adobe-2.0 EPSF-2.0
%%BoundingBox:  0 0 567 479
%%Title: corrmatEFT_unconditional_fit_exp_fitresult.eps: unconditional_fit_exp_fitresult
%%Creator: ROOT Version 6.20/02
%%CreationDate: Wed Jan 27 10:51:38 2021
%%DocumentNeededResources: ProcSet (FontSetInit)
%%EndComments
%%BeginProlog
80 dict begin
/s {stroke} def /l {lineto} def /m {moveto} def /t {translate} def
/r {rotate} def /rl {roll}  def /R {repeat} def
/d {rlineto} def /rm {rmoveto} def /gr {grestore} def /f {eofill} def
/c {setrgbcolor} def /black {0 setgray} def /sd {setdash} def
/cl {closepath} def /sf {scalefont setfont} def /lw {setlinewidth} def
/box {m dup 0 exch d exch 0 d 0 exch neg d cl} def
/NC{systemdict begin initclip end}def/C{NC box clip newpath}def
/bl {box s} def /bf {gsave box gsave f grestore 1 lw [] 0 sd s grestore} def /Y { 0 exch d} def /X { 0 d} def 
/K {{pop pop 0 moveto} exch kshow} bind def
/ita {/ang 15 def gsave [1 0 ang dup sin exch cos div 1 0 0] concat} def 
/mp {newpath /y exch def /x exch def} def
/side {[w .77 mul w .23 mul] .385 w mul sd w 0 l currentpoint t -144 r} def
/mr {mp x y w2 0 360 arc} def /m24 {mr s} def /m20 {mr f} def
/mb {mp x y w2 add m w2 neg 0 d 0 w neg d w 0 d 0 w d cl} def
/mt {mp x y w2 add m w2 neg w neg d w 0 d cl} def
/w4 {w 4 div} def
/w6 {w 6 div} def
/w8 {w 8 div} def
/m21 {mb f} def /m25 {mb s} def /m22 {mt f} def /m26{mt s} def
/m23 {mp x y w2 sub m w2 w d w neg 0 d cl f} def
/m27 {mp x y w2 add m w3 neg w2 neg d w3 w2 neg d w3 w2 d cl s} def
/m28 {mp x w2 sub y w2 sub w3 add m w3 0 d  0 w3 neg d w3 0 d 0 w3 d w3 0 d  0 w3 d w3 neg 0 d 0 w3 d w3 neg 0 d 0 w3 neg d w3 neg 0 d cl s } def
/m29 {mp gsave x w2 sub y w2 add w3 sub m currentpoint t 4 {side} repeat cl fill gr} def
/m30 {mp gsave x w2 sub y w2 add w3 sub m currentpoint t 4 {side} repeat cl s gr} def
/m31 {mp x y w2 sub m 0 w d x w2 sub y m w 0 d x w2 sub y w2 add m w w neg d x w2 sub y w2 sub m w w d s} def
/m32 {mp x y w2 sub m w2 w d w neg 0 d cl s} def
/m33 {mp x y w2 add m w3 neg w2 neg d w3 w2 neg d w3 w2 d cl f} def
/m34 {mp x w2 sub y w2 sub w3 add m w3 0 d  0 w3 neg d w3 0 d 0 w3 d w3 0 d  0 w3 d w3 neg 0 d 0 w3 d w3 neg 0 d 0 w3 neg d w3 neg 0 d cl f } def
/m35 {mp x y w2 add m w2 neg w2 neg d w2 w2 neg d w2 w2 d w2 neg w2 d x y w2 sub m 0 w d x w2 sub y m w 0 d s} def
/m36 {mb x w2 sub y w2 add m w w neg d x w2 sub y w2 sub m w w d s} def
/m37 {mp x y m w4 neg w2 d w4 neg w2 neg d w2 0 d  w4 neg w2 neg d w2 0 d w4 neg w2 d w2 0 d w4 neg w2 d w4 neg w2 neg d cl s} def
/m38 {mp x w4 sub y w2 add m w4 neg w4 neg d 0 w2 neg d w4 w4 neg d w2 0 d w4 w4 d 0 w2 d w4 neg w4 d w2 neg 0 d x y w2 sub m 0 w d x w2 sub y m w 0 d cl s} def
/m39 {mp x y m w4 neg w2 d w4 neg w2 neg d w2 0 d  w4 neg w2 neg d w2 0 d w4 neg w2 d w2 0 d w4 neg w2 d w4 neg w2 neg d cl f} def
/m40 {mp x y m w4 w2 d w4 w4 neg d w2 neg w4 neg d w2 w4 neg d w4 neg w4 neg d w4 neg w2 d w4 neg w2 neg d w4 neg w4 d w2 w4 d w2 neg w4 d w4 w4 d w4 w2 neg d cl s} def
/m41 {mp x y m w4 w2 d w4 w4 neg d w2 neg w4 neg d w2 w4 neg d w4 neg w4 neg d w4 neg w2 d w4 neg w2 neg d w4 neg w4 d w2 w4 d w2 neg w4 d w4 w4 d w4 w2 neg d cl f} def
/m42 {mp x y w2 add m w8 neg w2 -3 4 div mul d w2 -3 4 div mul w8 neg d w2 3 4 div mul w8 neg d w8 w2 -3 4 div mul d w8 w2 3 4 div mul d w2 3 4 div mul w8 d w2 -3 4 div mul w8 d w8 neg w2 3 4 div mul d cl s} def
/m43 {mp x y w2 add m w8 neg w2 -3 4 div mul d w2 -3 4 div mul w8 neg d w2 3 4 div mul w8 neg d w8 w2 -3 4 div mul d w8 w2 3 4 div mul d w2 3 4 div mul w8 d w2 -3 4 div mul w8 d w8 neg w2 3 4 div mul d cl f} def
/m44 {mp x y m w6 neg w2 d w2 2 3 div mul 0 d w6 neg w2 neg d w2 w6 d 0 w2 -2 3 div mul d w2 neg w6 d w6 w2 neg d w2 -2 3 div mul 0 d w6 w2 d w2 neg w6 neg d 0 w2 2 3 div mul d w2 w6 neg d cl s} def
/m45 {mp x y m w6 neg w2 d w2 2 3 div mul 0 d w6 neg w2 neg d w2 w6 d 0 w2 -2 3 div mul d w2 neg w6 d w6 w2 neg d w2 -2 3 div mul 0 d w6 w2 d w2 neg w6 neg d 0 w2 2 3 div mul d w2 w6 neg d cl f} def
/m46 {mp x y w4 add m w4 neg w4 d w4 neg w4 neg d  w4 w4 neg d w4 neg w4 neg d w4 w4 neg d w4 w4 d w4 w4 neg d w4 w4 d w4 neg w4 d w4 w4 d w4 neg w4 d w4 neg w4 neg d cl s} def
/m47 {mp x y w4 add m w4 neg w4 d w4 neg w4 neg d w4 w4 neg d w4 neg w4 neg d  w4 w4 neg d w4 w4 d w4 w4 neg d w4 w4 d w4 neg w4 d w4 w4 d w4 neg w4 d w4 neg w4 neg d cl f} def
/m48 {mp x y w4 add m w4 neg w4 d w4 neg w4 neg d w4 w4 neg d  w4 neg w4 neg d w4 w4 neg d w4 w4 d w4 w4 neg d w4 w4 d w4 neg w4 d w4 w4 d w4 neg w4 d w4 neg w4 neg d  w4 w4 neg d w4 neg w4 neg d w4 neg w4 d w4 w4 d cl f} def
/m49 {mp x w2 sub w3 add y w2 sub w3 add m  0 w3 neg d w3 0 d 0 w3 d w3 0 d 0 w3 d w3 neg 0 d 0 w3 d w3 neg 0 d 0 w3 neg d w3 neg 0 d 0 w3 neg d w3 0 d 0 w3 d w3 0 d 0 w3 neg d w3 neg 0 d cl f } def
/m2 {mp x y w2 sub m 0 w d x w2 sub y m w 0 d s} def
/m5 {mp x w2 sub y w2 sub m w w d x w2 sub y w2 add m w w neg d s} def
%%IncludeResource: ProcSet (FontSetInit)
%%IncludeResource: font Times-Roman
%%IncludeResource: font Times-Italic
%%IncludeResource: font Times-Bold
%%IncludeResource: font Times-BoldItalic
%%IncludeResource: font Helvetica
%%IncludeResource: font Helvetica-Oblique
%%IncludeResource: font Helvetica-Bold
%%IncludeResource: font Helvetica-BoldOblique
%%IncludeResource: font Courier
%%IncludeResource: font Courier-Oblique
%%IncludeResource: font Courier-Bold
%%IncludeResource: font Courier-BoldOblique
%%IncludeResource: font Symbol
%%IncludeResource: font ZapfDingbats
/reEncode {exch findfont dup length dict begin {1 index /FID eq  {pop pop} {def} ifelse } forall /Encoding exch def currentdict end dup /FontName get exch definefont pop } def [/Times-Bold /Times-Italic /Times-BoldItalic /Helvetica /Helvetica-Oblique
 /Helvetica-Bold /Helvetica-BoldOblique /Courier /Courier-Oblique /Courier-Bold /Courier-BoldOblique /Times-Roman /AvantGarde-Book /AvantGarde-BookOblique /AvantGarde-Demi /AvantGarde-DemiOblique /Bookman-Demi /Bookman-DemiItalic /Bookman-Light
 /Bookman-LightItalic /Helvetica-Narrow /Helvetica-Narrow-Bold /Helvetica-Narrow-BoldOblique /Helvetica-Narrow-Oblique /NewCenturySchlbk-Roman /NewCenturySchlbk-Bold /NewCenturySchlbk-BoldItalic /NewCenturySchlbk-Italic /Palatino-Bold
 /Palatino-BoldItalic /Palatino-Italic /Palatino-Roman ] {ISOLatin1Encoding reEncode } forall
%%EndProlog
%%BeginSetup
%%EndSetup
newpath  gsave  .25 .25 scale  gsave  0 0 t black[  ] 0 sd 3 lw 1 1 1 c black 1 1 1 c 1213 1034 737 689 bf black 1213 1034 737 689 bl 1 1 1 c 1213 1034 737 689 bf black 1213 1034 737 689 bl 1 1 1 c 0.53125 0.690625 0.915625 c 173 148 737 689 bf
 0.851562 0.902031 0.973281 c 174 148 910 689 bf 0.234375 0.494687 0.862188 c 173 148 1084 689 bf 1 0.768504 0.228346 c 173 148 1257 689 bf 0.460938 0.644219 0.902969 c 174 148 1430 689 bf 0.984375 0.989688 0.997187 c 173 148 1604 689 bf 0.0078125
 0.345156 0.821406 c 173 148 1777 689 bf 0.359375 0.577187 0.884687 c 173 148 737 837 bf 1 0.813386 0.377953 c 174 148 910 837 bf 0.78125 0.855625 0.960625 c 173 148 1084 837 bf 1 0.914961 0.716535 c 173 148 1257 837 bf 0.554688 0.706094 0.919844 c
 174 148 1430 837 bf 0.0078125 0.345156 0.821406 c 173 148 1604 837 bf 0.984375 0.989688 0.997187 c 173 148 1777 837 bf 0.101562 0.407031 0.838281 c 173 147 737 985 bf 1 0.950394 0.834646 c 174 147 910 985 bf 0.257812 0.510156 0.866406 c 173 147 1084
 985 bf 1 0.735433 0.11811 c 173 147 1257 985 bf 0.0078125 0.345156 0.821406 c 174 147 1430 985 bf 0.554688 0.706094 0.919844 c 173 147 1604 985 bf 0.460938 0.644219 0.902969 c 173 147 1777 985 bf 1 0.76378 0.212598 c 173 148 737 1132 bf 0.984375
 0.989688 0.997187 c 174 148 910 1132 bf 1 0.782677 0.275591 c 173 148 1084 1132 bf 0.0078125 0.345156 0.821406 c 173 148 1257 1132 bf 1 0.735433 0.11811 c 174 148 1430 1132 bf 1 0.914961 0.716535 c 173 148 1604 1132 bf 1 0.768504 0.228346 c 173 148
 1777 1132 bf 0.335938 0.561719 0.880469 c 173 148 737 1280 bf 1 0.992913 0.976378 c 174 148 910 1280 bf 0.0078125 0.345156 0.821406 c 173 148 1084 1280 bf 1 0.782677 0.275591 c 173 148 1257 1280 bf 0.257812 0.510156 0.866406 c 174 148 1430 1280 bf
 0.78125 0.855625 0.960625 c 173 148 1604 1280 bf 0.234375 0.494687 0.862188 c 173 148 1777 1280 bf 1 0.848819 0.496063 c 173 147 737 1428 bf 0.0078125 0.345156 0.821406 c 174 147 910 1428 bf 1 0.992913 0.976378 c 173 147 1084 1428 bf 0.984375
 0.989688 0.997187 c 173 147 1257 1428 bf 1 0.950394 0.834646 c 174 147 1430 1428 bf 1 0.813386 0.377953 c 173 147 1604 1428 bf 0.851562 0.902031 0.973281 c 173 147 1777 1428 bf 0.0078125 0.345156 0.821406 c 173 148 737 1575 bf 1 0.848819 0.496063 c
 174 148 910 1575 bf 0.335938 0.561719 0.880469 c 173 148 1084 1575 bf 1 0.76378 0.212598 c 173 148 1257 1575 bf 0.101562 0.407031 0.838281 c 174 148 1430 1575 bf 0.359375 0.577187 0.884687 c 173 148 1604 1575 bf 0.53125 0.690625 0.915625 c 173 148
 1777 1575 bf 1 1 1 c black 737 689 m 1213 X s
 gsave  2268 1914 0 0 C 814.783 635.302 t 90 r /Helvetica-Oblique findfont 31.3378 sf 0 0 m (\(3\)) show NC gr 
 gsave  2268 1914 0 0 C 860.365 635.302 t 90 r /Helvetica-Oblique findfont 31.3378 sf 0 0 m (Hl) show NC gr 
 gsave  2268 1914 0 0 C 840.423 606.814 t 90 r /Helvetica-Oblique findfont 48.4311 sf 0 0 m (c) show NC gr 
 gsave  2268 1914 0 0 C 985.716 635.302 t 90 r /Helvetica-Oblique findfont 31.3378 sf 0 0 m (\(1\)) show NC gr 
 gsave  2268 1914 0 0 C 1031.3 635.302 t 90 r /Helvetica-Oblique findfont 31.3378 sf 0 0 m (ll) show NC gr 
 gsave  2268 1914 0 0 C 1011.36 606.814 t 90 r /Helvetica-Oblique findfont 48.4311 sf 0 0 m (c) show NC gr 
 gsave  2268 1914 0 0 C 1193.68 641 t 90 r /Helvetica-Oblique findfont 31.3378 sf 0 0 m (W) show NC gr 
 gsave  2268 1914 0 0 C 1173.74 612.511 t 90 r /Helvetica-Oblique findfont 48.4311 sf 0 0 m (c) show NC gr 
 gsave  2268 1914 0 0 C 1327.58 492.858 t 90 r /Helvetica-Oblique findfont 31.3378 sf 0 0 m ([1]) show NC gr 
 gsave  2268 1914 0 0 C 1356.07 649.547 t 90 r /Helvetica-Oblique findfont 19.9422 sf 0 0 m (\(3\)) show NC gr 
 gsave  2268 1914 0 0 C 1376.01 612.511 t 90 r /Helvetica-Oblique findfont 31.3378 sf 0 0 m (,lq) show NC gr 
 gsave  2268 1914 0 0 C 1356.07 586.871 t 90 r /Helvetica-Oblique findfont 19.9422 sf 0 0 m (\(1\)) show NC gr 
 gsave  2268 1914 0 0 C 1376.01 492.858 t 90 r /Helvetica-Oblique findfont 31.3378 sf 0 0 m (lu,ld,lq) show NC gr 
 gsave  2268 1914 0 0 C 1353.22 464.369 t 90 r /Helvetica-Oblique findfont 48.4311 sf 0 0 m (c) show NC gr 
 gsave  2268 1914 0 0 C 1501.37 433.031 t 90 r /Helvetica-Oblique findfont 31.3378 sf 0 0 m ([1]) show NC gr 
 gsave  2268 1914 0 0 C 1529.85 649.547 t 90 r /Helvetica-Oblique findfont 19.9422 sf 0 0 m (\(3\)) show NC gr 
 gsave  2268 1914 0 0 C 1549.8 598.267 t 90 r /Helvetica-Oblique findfont 31.3378 sf 0 0 m (,Hq) show NC gr 
 gsave  2268 1914 0 0 C 1529.85 572.627 t 90 r /Helvetica-Oblique findfont 19.9422 sf 0 0 m (\(1\)) show NC gr 
 gsave  2268 1914 0 0 C 1549.8 433.031 t 90 r /Helvetica-Oblique findfont 31.3378 sf 0 0 m (Hd,Hu,Hq) show NC gr 
 gsave  2268 1914 0 0 C 1527.01 404.542 t 90 r /Helvetica-Oblique findfont 48.4311 sf 0 0 m (c) show NC gr 
 gsave  2268 1914 0 0 C 1678 156.689 t 90 r /Helvetica-Oblique findfont 31.3378 sf 0 0 m ([1]) show NC gr 
 gsave  2268 1914 0 0 C 1723.58 595.418 t 90 r /Helvetica-Oblique findfont 31.3378 sf 0 0 m (,HDD) show NC gr  6 lw 1724 581 m 14 Y s 1724 595 m -18 X s 1706 595 m -14 Y s 1706 581 m 18 X s
 gsave  2268 1914 0 0 C 1723.58 156.689 t 90 r /Helvetica-Oblique findfont 31.3378 sf 0 0 m (HG,uG,HB,HW,HWB,uH,dH,H) show NC gr 
 gsave  2268 1914 0 0 C 1703.64 128.2 t 90 r /Helvetica-Oblique findfont 48.4311 sf 0 0 m (c) show NC gr 
 gsave  2268 1914 0 0 C 1851.78 156.689 t 90 r /Helvetica-Oblique findfont 31.3378 sf 0 0 m ([2]) show NC gr 
 gsave  2268 1914 0 0 C 1897.36 595.418 t 90 r /Helvetica-Oblique findfont 31.3378 sf 0 0 m (,HDD) show NC gr  1897 581 m 14 Y s 1897 595 m -17 X s 1880 595 m -14 Y s 1880 581 m 17 X s
 gsave  2268 1914 0 0 C 1897.36 156.689 t 90 r /Helvetica-Oblique findfont 31.3378 sf 0 0 m (HG,uG,HB,HW,HWB,uH,dH,H) show NC gr 
 gsave  2268 1914 0 0 C 1877.42 128.2 t 90 r /Helvetica-Oblique findfont 48.4311 sf 0 0 m (c) show NC gr  3 lw 737 689 m cl s 910 689 m cl s 1084 689 m cl s 1257 689 m cl s 1430 689 m cl s 1604 689 m cl s 1777 689 m cl s 1950 689 m cl s 737 1723 m
 1213 X s 737 1723 m cl s 910 1723 m cl s 1084 1723 m cl s 1257 1723 m cl s 1430 1723 m cl s 1604 1723 m cl s 1777 1723 m cl s 1950 1723 m cl s 737 689 m 1034 Y s
 gsave  2268 1914 0 0 C 196.573 774.898 t 0 r /Helvetica-Oblique findfont 31.3378 sf 0 0 m ([2]) show NC gr 
 gsave  2268 1914 0 0 C 638.151 729.316 t 0 r /Helvetica-Oblique findfont 31.3378 sf 0 0 m (,HDD) show NC gr  6 lw 621 729 m 14 X s 635 729 m 17 Y s 635 746 m -14 X s 621 746 m -17 Y s
 gsave  2268 1914 0 0 C 196.573 729.316 t 0 r /Helvetica-Oblique findfont 31.3378 sf 0 0 m (HG,uG,HB,HW,HWB,uH,dH,H) show NC gr 
 gsave  2268 1914 0 0 C 168.085 749.258 t 0 r /Helvetica-Oblique findfont 48.4311 sf 0 0 m (c) show NC gr 
 gsave  2268 1914 0 0 C 196.573 923.04 t 0 r /Helvetica-Oblique findfont 31.3378 sf 0 0 m ([1]) show NC gr 
 gsave  2268 1914 0 0 C 638.151 877.458 t 0 r /Helvetica-Oblique findfont 31.3378 sf 0 0 m (,HDD) show NC gr  621 877 m 14 X s 635 877 m 18 Y s 635 895 m -14 X s 621 895 m -18 Y s
 gsave  2268 1914 0 0 C 196.573 877.458 t 0 r /Helvetica-Oblique findfont 31.3378 sf 0 0 m (HG,uG,HB,HW,HWB,uH,dH,H) show NC gr 
 gsave  2268 1914 0 0 C 168.085 897.4 t 0 r /Helvetica-Oblique findfont 48.4311 sf 0 0 m (c) show NC gr 
 gsave  2268 1914 0 0 C 475.765 1074.03 t 0 r /Helvetica-Oblique findfont 31.3378 sf 0 0 m ([1]) show NC gr 
 gsave  2268 1914 0 0 C 692.28 1045.54 t 0 r /Helvetica-Oblique findfont 19.9422 sf 0 0 m (\(3\)) show NC gr 
 gsave  2268 1914 0 0 C 641 1025.6 t 0 r /Helvetica-Oblique findfont 31.3378 sf 0 0 m (,Hq) show NC gr 
 gsave  2268 1914 0 0 C 615.36 1045.54 t 0 r /Helvetica-Oblique findfont 19.9422 sf 0 0 m (\(1\)) show NC gr 
 gsave  2268 1914 0 0 C 475.765 1025.6 t 0 r /Helvetica-Oblique findfont 31.3378 sf 0 0 m (Hd,Hu,Hq) show NC gr 
 gsave  2268 1914 0 0 C 447.276 1048.39 t 0 r /Helvetica-Oblique findfont 48.4311 sf 0 0 m (c) show NC gr 
 gsave  2268 1914 0 0 C 535.591 1222.17 t 0 r /Helvetica-Oblique findfont 31.3378 sf 0 0 m ([1]) show NC gr 
 gsave  2268 1914 0 0 C 692.28 1193.68 t 0 r /Helvetica-Oblique findfont 19.9422 sf 0 0 m (\(3\)) show NC gr 
 gsave  2268 1914 0 0 C 655.245 1173.74 t 0 r /Helvetica-Oblique findfont 31.3378 sf 0 0 m (,lq) show NC gr 
 gsave  2268 1914 0 0 C 629.605 1193.68 t 0 r /Helvetica-Oblique findfont 19.9422 sf 0 0 m (\(1\)) show NC gr 
 gsave  2268 1914 0 0 C 535.591 1173.74 t 0 r /Helvetica-Oblique findfont 31.3378 sf 0 0 m (lu,ld,lq) show NC gr 
 gsave  2268 1914 0 0 C 507.102 1196.53 t 0 r /Helvetica-Oblique findfont 48.4311 sf 0 0 m (c) show NC gr 
 gsave  2268 1914 0 0 C 683.734 1330.43 t 0 r /Helvetica-Oblique findfont 31.3378 sf 0 0 m (W) show NC gr 
 gsave  2268 1914 0 0 C 655.245 1350.37 t 0 r /Helvetica-Oblique findfont 48.4311 sf 0 0 m (c) show NC gr 
 gsave  2268 1914 0 0 C 678.036 1512.76 t 0 r /Helvetica-Oblique findfont 31.3378 sf 0 0 m (\(1\)) show NC gr 
 gsave  2268 1914 0 0 C 678.036 1467.18 t 0 r /Helvetica-Oblique findfont 31.3378 sf 0 0 m (ll) show NC gr 
 gsave  2268 1914 0 0 C 649.547 1487.12 t 0 r /Helvetica-Oblique findfont 48.4311 sf 0 0 m (c) show NC gr 
 gsave  2268 1914 0 0 C 678.036 1658.05 t 0 r /Helvetica-Oblique findfont 31.3378 sf 0 0 m (\(3\)) show NC gr 
 gsave  2268 1914 0 0 C 678.036 1612.47 t 0 r /Helvetica-Oblique findfont 31.3378 sf 0 0 m (Hl) show NC gr 
 gsave  2268 1914 0 0 C 649.547 1632.41 t 0 r /Helvetica-Oblique findfont 48.4311 sf 0 0 m (c) show NC gr  3 lw 737 689 m cl s 737 837 m cl s 737 985 m cl s 737 1132 m cl s 737 1280 m cl s 737 1428 m cl s 737 1575 m cl s 737 1723 m cl s 1950 689 m
 1034 Y s 1950 689 m cl s 1950 837 m cl s 1950 985 m cl s 1950 1132 m cl s 1950 1280 m cl s 1950 1428 m cl s 1950 1575 m cl s 1950 1723 m cl s 1 0.7 0 c 102 4 1962 689 bf 1 0.702362 0.00787402 c 102 4 1962 693 bf 1 0.704724 0.015748 c 102 4 1962 697
 bf 1 0.707087 0.023622 c 102 4 1962 701 bf 1 0.709449 0.0314961 c 102 4 1962 705 bf 1 0.711811 0.0393701 c 102 5 1962 709 bf 1 0.714173 0.0472441 c 102 4 1962 714 bf 1 0.716535 0.0551181 c 102 4 1962 718 bf 1 0.718898 0.0629921 c 102 4 1962 722 bf 1
 0.72126 0.0708661 c 102 4 1962 726 bf 1 0.723622 0.0787402 c 102 4 1962 730 bf 1 0.725984 0.0866142 c 102 4 1962 734 bf 1 0.728346 0.0944882 c 102 4 1962 738 bf 1 0.730709 0.102362 c 102 4 1962 742 bf 1 0.733071 0.110236 c 102 4 1962 746 bf 1
 0.735433 0.11811 c 102 4 1962 750 bf 1 0.737795 0.125984 c 102 4 1962 754 bf 1 0.740157 0.133858 c 102 4 1962 758 bf 1 0.74252 0.141732 c 102 4 1962 762 bf 1 0.744882 0.149606 c 102 4 1962 766 bf 1 0.747244 0.15748 c 102 4 1962 770 bf 1 0.749606
 0.165354 c 102 4 1962 774 bf 1 0.751969 0.173228 c 102 4 1962 778 bf 1 0.754331 0.181102 c 102 5 1962 782 bf 1 0.756693 0.188976 c 102 4 1962 787 bf 1 0.759055 0.19685 c 102 4 1962 791 bf 1 0.761417 0.204724 c 102 4 1962 795 bf 1 0.76378 0.212598 c
 102 4 1962 799 bf 1 0.766142 0.220472 c 102 4 1962 803 bf 1 0.768504 0.228346 c 102 4 1962 807 bf 1 0.770866 0.23622 c 102 4 1962 811 bf 1 0.773228 0.244094 c 102 4 1962 815 bf 1 0.775591 0.251969 c 102 4 1962 819 bf 1 0.777953 0.259843 c 102 4 1962
 823 bf 1 0.780315 0.267717 c 102 4 1962 827 bf 1 0.782677 0.275591 c 102 4 1962 831 bf 1 0.785039 0.283465 c 102 4 1962 835 bf 1 0.787402 0.291339 c 102 4 1962 839 bf 1 0.789764 0.299213 c 102 4 1962 843 bf 1 0.792126 0.307087 c 102 4 1962 847 bf 1
 0.794488 0.314961 c 102 4 1962 851 bf 1 0.79685 0.322835 c 102 4 1962 855 bf 1 0.799213 0.330709 c 102 5 1962 859 bf 1 0.801575 0.338583 c 102 4 1962 864 bf 1 0.803937 0.346457 c 102 4 1962 868 bf 1 0.806299 0.354331 c 102 4 1962 872 bf 1 0.808661
 0.362205 c 102 4 1962 876 bf 1 0.811024 0.370079 c 102 4 1962 880 bf 1 0.813386 0.377953 c 102 4 1962 884 bf 1 0.815748 0.385827 c 102 4 1962 888 bf 1 0.81811 0.393701 c 102 4 1962 892 bf 1 0.820472 0.401575 c 102 4 1962 896 bf 1 0.822835 0.409449 c
 102 4 1962 900 bf 1 0.825197 0.417323 c 102 4 1962 904 bf 1 0.827559 0.425197 c 102 4 1962 908 bf 1 0.829921 0.433071 c 102 4 1962 912 bf 1 0.832283 0.440945 c 102 4 1962 916 bf 1 0.834646 0.448819 c 102 4 1962 920 bf 1 0.837008 0.456693 c 102 4
 1962 924 bf 1 0.83937 0.464567 c 102 4 1962 928 bf 1 0.841732 0.472441 c 102 5 1962 932 bf 1 0.844095 0.480315 c 102 4 1962 937 bf 1 0.846457 0.488189 c 102 4 1962 941 bf 1 0.848819 0.496063 c 102 4 1962 945 bf 1 0.851181 0.503937 c 102 4 1962 949
 bf 1 0.853543 0.511811 c 102 4 1962 953 bf 1 0.855906 0.519685 c 102 4 1962 957 bf 1 0.858268 0.527559 c 102 4 1962 961 bf 1 0.86063 0.535433 c 102 4 1962 965 bf 1 0.862992 0.543307 c 102 4 1962 969 bf 1 0.865354 0.551181 c 102 4 1962 973 bf 1
 0.867717 0.559055 c 102 4 1962 977 bf 1 0.870079 0.566929 c 102 4 1962 981 bf 1 0.872441 0.574803 c 102 4 1962 985 bf 1 0.874803 0.582677 c 102 4 1962 989 bf 1 0.877165 0.590551 c 102 4 1962 993 bf 1 0.879528 0.598425 c 102 4 1962 997 bf 1 0.88189
 0.606299 c 102 4 1962 1001 bf 1 0.884252 0.614173 c 102 4 1962 1005 bf 1 0.886614 0.622047 c 102 5 1962 1009 bf 1 0.888976 0.629921 c 102 4 1962 1014 bf 1 0.891339 0.637795 c 102 4 1962 1018 bf 1 0.893701 0.645669 c 102 4 1962 1022 bf 1 0.896063
 0.653543 c 102 4 1962 1026 bf 1 0.898425 0.661417 c 102 4 1962 1030 bf 1 0.900787 0.669291 c 102 4 1962 1034 bf 1 0.90315 0.677165 c 102 4 1962 1038 bf 1 0.905512 0.685039 c 102 4 1962 1042 bf 1 0.907874 0.692913 c 102 4 1962 1046 bf 1 0.910236
 0.700787 c 102 4 1962 1050 bf 1 0.912598 0.708661 c 102 4 1962 1054 bf 1 0.914961 0.716535 c 102 4 1962 1058 bf 1 0.917323 0.724409 c 102 4 1962 1062 bf 1 0.919685 0.732283 c 102 4 1962 1066 bf 1 0.922047 0.740157 c 102 4 1962 1070 bf 1 0.924409
 0.748031 c 102 4 1962 1074 bf 1 0.926772 0.755906 c 102 4 1962 1078 bf 1 0.929134 0.76378 c 102 5 1962 1082 bf 1 0.931496 0.771654 c 102 4 1962 1087 bf 1 0.933858 0.779528 c 102 4 1962 1091 bf 1 0.93622 0.787402 c 102 4 1962 1095 bf 1 0.938583
 0.795276 c 102 4 1962 1099 bf 1 0.940945 0.80315 c 102 4 1962 1103 bf 1 0.943307 0.811024 c 102 4 1962 1107 bf 1 0.945669 0.818898 c 102 4 1962 1111 bf 1 0.948031 0.826772 c 102 4 1962 1115 bf 1 0.950394 0.834646 c 102 4 1962 1119 bf 1 0.952756
 0.84252 c 102 4 1962 1123 bf 1 0.955118 0.850394 c 102 4 1962 1127 bf 1 0.95748 0.858268 c 102 4 1962 1131 bf 1 0.959843 0.866142 c 102 4 1962 1135 bf 1 0.962205 0.874016 c 102 4 1962 1139 bf 1 0.964567 0.88189 c 102 4 1962 1143 bf 1 0.966929
 0.889764 c 102 4 1962 1147 bf 1 0.969291 0.897638 c 102 4 1962 1151 bf 1 0.971654 0.905512 c 102 4 1962 1155 bf 1 0.974016 0.913386 c 102 5 1962 1159 bf 1 0.976378 0.92126 c 102 4 1962 1164 bf 1 0.97874 0.929134 c 102 4 1962 1168 bf 1 0.981102
 0.937008 c 102 4 1962 1172 bf 1 0.983465 0.944882 c 102 4 1962 1176 bf 1 0.985827 0.952756 c 102 4 1962 1180 bf 1 0.988189 0.96063 c 102 4 1962 1184 bf 1 0.990551 0.968504 c 102 4 1962 1188 bf 1 0.992913 0.976378 c 102 4 1962 1192 bf 1 0.995276
 0.984252 c 102 4 1962 1196 bf 1 0.997638 0.992126 c 102 4 1962 1200 bf 1 1 1 c 102 4 1962 1204 bf 0.992188 0.994844 0.998594 c 102 4 1962 1208 bf 0.984375 0.989688 0.997187 c 102 4 1962 1212 bf 0.976562 0.984531 0.995781 c 102 4 1962 1216 bf 0.96875
 0.979375 0.994375 c 102 4 1962 1220 bf 0.960938 0.974219 0.992969 c 102 4 1962 1224 bf 0.953125 0.969063 0.991562 c 102 4 1962 1228 bf 0.945312 0.963906 0.990156 c 102 5 1962 1232 bf 0.9375 0.95875 0.98875 c 102 4 1962 1237 bf 0.929688 0.953594
 0.987344 c 102 4 1962 1241 bf 0.921875 0.948438 0.985937 c 102 4 1962 1245 bf 0.914062 0.943281 0.984531 c 102 4 1962 1249 bf 0.90625 0.938125 0.983125 c 102 4 1962 1253 bf 0.898438 0.932969 0.981719 c 102 4 1962 1257 bf 0.890625 0.927813 0.980313 c
 102 4 1962 1261 bf 0.882812 0.922656 0.978906 c 102 4 1962 1265 bf 0.875 0.9175 0.9775 c 102 4 1962 1269 bf 0.867188 0.912344 0.976094 c 102 4 1962 1273 bf 0.859375 0.907188 0.974688 c 102 4 1962 1277 bf 0.851562 0.902031 0.973281 c 102 4 1962 1281
 bf 0.84375 0.896875 0.971875 c 102 4 1962 1285 bf 0.835938 0.891719 0.970469 c 102 4 1962 1289 bf 0.828125 0.886563 0.969063 c 102 4 1962 1293 bf 0.820312 0.881406 0.967656 c 102 4 1962 1297 bf 0.8125 0.87625 0.96625 c 102 4 1962 1301 bf 0.804688
 0.871094 0.964844 c 102 4 1962 1305 bf 0.796875 0.865937 0.963437 c 102 5 1962 1309 bf 0.789062 0.860781 0.962031 c 102 4 1962 1314 bf 0.78125 0.855625 0.960625 c 102 4 1962 1318 bf 0.773438 0.850469 0.959219 c 102 4 1962 1322 bf 0.765625 0.845312
 0.957812 c 102 4 1962 1326 bf 0.757812 0.840156 0.956406 c 102 4 1962 1330 bf 0.75 0.835 0.955 c 102 4 1962 1334 bf 0.742188 0.829844 0.953594 c 102 4 1962 1338 bf 0.734375 0.824687 0.952187 c 102 4 1962 1342 bf 0.726562 0.819531 0.950781 c 102 4
 1962 1346 bf 0.71875 0.814375 0.949375 c 102 4 1962 1350 bf 0.710938 0.809219 0.947969 c 102 4 1962 1354 bf 0.703125 0.804062 0.946563 c 102 4 1962 1358 bf 0.695312 0.798906 0.945156 c 102 4 1962 1362 bf 0.6875 0.79375 0.94375 c 102 4 1962 1366 bf
 0.679688 0.788594 0.942344 c 102 4 1962 1370 bf 0.671875 0.783437 0.940938 c 102 4 1962 1374 bf 0.664062 0.778281 0.939531 c 102 4 1962 1378 bf 0.65625 0.773125 0.938125 c 102 5 1962 1382 bf 0.648438 0.767969 0.936719 c 102 4 1962 1387 bf 0.640625
 0.762812 0.935313 c 102 4 1962 1391 bf 0.632812 0.757656 0.933906 c 102 4 1962 1395 bf 0.625 0.7525 0.9325 c 102 4 1962 1399 bf 0.617188 0.747344 0.931094 c 102 4 1962 1403 bf 0.609375 0.742188 0.929688 c 102 4 1962 1407 bf 0.601562 0.737031
 0.928281 c 102 4 1962 1411 bf 0.59375 0.731875 0.926875 c 102 4 1962 1415 bf 0.585938 0.726719 0.925469 c 102 4 1962 1419 bf 0.578125 0.721563 0.924062 c 102 4 1962 1423 bf 0.570312 0.716406 0.922656 c 102 4 1962 1427 bf 0.5625 0.71125 0.92125 c 102
 4 1962 1431 bf 0.554688 0.706094 0.919844 c 102 4 1962 1435 bf 0.546875 0.700938 0.918437 c 102 4 1962 1439 bf 0.539062 0.695781 0.917031 c 102 4 1962 1443 bf 0.53125 0.690625 0.915625 c 102 4 1962 1447 bf 0.523438 0.685469 0.914219 c 102 4 1962
 1451 bf 0.515625 0.680313 0.912812 c 102 4 1962 1455 bf 0.507812 0.675156 0.911406 c 102 5 1962 1459 bf 0.5 0.67 0.91 c 102 4 1962 1464 bf 0.492188 0.664844 0.908594 c 102 4 1962 1468 bf 0.484375 0.659688 0.907188 c 102 4 1962 1472 bf 0.476562
 0.654531 0.905781 c 102 4 1962 1476 bf 0.46875 0.649375 0.904375 c 102 4 1962 1480 bf 0.460938 0.644219 0.902969 c 102 4 1962 1484 bf 0.453125 0.639063 0.901563 c 102 4 1962 1488 bf 0.445312 0.633906 0.900156 c 102 4 1962 1492 bf 0.4375 0.62875
 0.89875 c 102 4 1962 1496 bf 0.429688 0.623594 0.897344 c 102 4 1962 1500 bf 0.421875 0.618438 0.895938 c 102 4 1962 1504 bf 0.414062 0.613281 0.894531 c 102 4 1962 1508 bf 0.40625 0.608125 0.893125 c 102 4 1962 1512 bf 0.398438 0.602969 0.891719 c
 102 4 1962 1516 bf 0.390625 0.597812 0.890312 c 102 4 1962 1520 bf 0.382812 0.592656 0.888906 c 102 4 1962 1524 bf 0.375 0.5875 0.8875 c 102 4 1962 1528 bf 0.367188 0.582344 0.886094 c 102 5 1962 1532 bf 0.359375 0.577187 0.884687 c 102 4 1962 1537
 bf 0.351562 0.572031 0.883281 c 102 4 1962 1541 bf 0.34375 0.566875 0.881875 c 102 4 1962 1545 bf 0.335938 0.561719 0.880469 c 102 4 1962 1549 bf 0.328125 0.556562 0.879062 c 102 4 1962 1553 bf 0.320312 0.551406 0.877656 c 102 4 1962 1557 bf 0.3125
 0.54625 0.87625 c 102 4 1962 1561 bf 0.304688 0.541094 0.874844 c 102 4 1962 1565 bf 0.296875 0.535937 0.873438 c 102 4 1962 1569 bf 0.289062 0.530781 0.872031 c 102 4 1962 1573 bf 0.28125 0.525625 0.870625 c 102 4 1962 1577 bf 0.273438 0.520469
 0.869219 c 102 4 1962 1581 bf 0.265625 0.515312 0.867813 c 102 4 1962 1585 bf 0.257812 0.510156 0.866406 c 102 4 1962 1589 bf 0.25 0.505 0.865 c 102 4 1962 1593 bf 0.242188 0.499844 0.863594 c 102 4 1962 1597 bf 0.234375 0.494687 0.862188 c 102 4
 1962 1601 bf 0.226562 0.489531 0.860781 c 102 4 1962 1605 bf 0.21875 0.484375 0.859375 c 102 5 1962 1609 bf 0.210938 0.479219 0.857969 c 102 4 1962 1614 bf 0.203125 0.474063 0.856562 c 102 4 1962 1618 bf 0.195312 0.468906 0.855156 c 102 4 1962 1622
 bf 0.1875 0.46375 0.85375 c 102 4 1962 1626 bf 0.179688 0.458594 0.852344 c 102 4 1962 1630 bf 0.171875 0.453438 0.850937 c 102 4 1962 1634 bf 0.164062 0.448281 0.849531 c 102 4 1962 1638 bf 0.15625 0.443125 0.848125 c 102 4 1962 1642 bf 0.148438
 0.437969 0.846719 c 102 4 1962 1646 bf 0.140625 0.432813 0.845312 c 102 4 1962 1650 bf 0.132812 0.427656 0.843906 c 102 4 1962 1654 bf 0.125 0.4225 0.8425 c 102 4 1962 1658 bf 0.117188 0.417344 0.841094 c 102 4 1962 1662 bf 0.109375 0.412187
 0.839688 c 102 4 1962 1666 bf 0.101562 0.407031 0.838281 c 102 4 1962 1670 bf 0.09375 0.401875 0.836875 c 102 4 1962 1674 bf 0.0859375 0.396719 0.835469 c 102 4 1962 1678 bf 0.078125 0.391562 0.834063 c 102 5 1962 1682 bf 0.0703125 0.386406 0.832656
 c 102 4 1962 1687 bf 0.0625 0.38125 0.83125 c 102 4 1962 1691 bf 0.0546875 0.376094 0.829844 c 102 4 1962 1695 bf 0.046875 0.370937 0.828438 c 102 4 1962 1699 bf 0.0390625 0.365781 0.827031 c 102 4 1962 1703 bf 0.03125 0.360625 0.825625 c 102 4 1962
 1707 bf 0.0234375 0.355469 0.824219 c 102 4 1962 1711 bf 0.015625 0.350313 0.822812 c 102 4 1962 1715 bf 0.0078125 0.345156 0.821406 c 102 4 1962 1719 bf black 2064 689 m 1034 Y s 2027 689 m 37 X s 2027 793 m 37 X s 2027 896 m 37 X s 2027 999 m 37 X
 s 2027 1103 m 37 X s 2027 1206 m 37 X s 2027 1309 m 37 X s 2027 1413 m 37 X s 2027 1516 m 37 X s 2027 1620 m 37 X s 2027 1723 m 37 X s 2027 689 m 37 X s
 gsave  2268 1914 0 0 C 2105.33 663.791 t 0 r /Helvetica findfont 62.6756 sf 0 0 m (1) show NC gr 
 gsave  2268 1914 0 0 C 2073.99 663.791 t 0 r /Symbol findfont 62.6756 sf 0 0 m (-) show NC gr 
 gsave  2268 1914 0 0 C 2105.33 772.049 t 0 r /Helvetica findfont 62.6756 sf 0 0 m (0.8) show NC gr 
 gsave  2268 1914 0 0 C 2073.99 772.049 t 0 r /Symbol findfont 62.6756 sf 0 0 m (-) show NC gr 
 gsave  2268 1914 0 0 C 2105.33 874.609 t 0 r /Helvetica findfont 62.6756 sf 0 0 m (0.6) show NC gr 
 gsave  2268 1914 0 0 C 2073.99 874.609 t 0 r /Symbol findfont 62.6756 sf 0 0 m (-) show NC gr 
 gsave  2268 1914 0 0 C 2105.33 977.169 t 0 r /Helvetica findfont 62.6756 sf 0 0 m (0.4) show NC gr 
 gsave  2268 1914 0 0 C 2073.99 977.169 t 0 r /Symbol findfont 62.6756 sf 0 0 m (-) show NC gr 
 gsave  2268 1914 0 0 C 2105.33 1082.58 t 0 r /Helvetica findfont 62.6756 sf 0 0 m (0.2) show NC gr 
 gsave  2268 1914 0 0 C 2073.99 1082.58 t 0 r /Symbol findfont 62.6756 sf 0 0 m (-) show NC gr 
 gsave  2268 1914 0 0 C 2073.99 1185.14 t 0 r /Helvetica findfont 62.6756 sf 0 0 m (0) show NC gr 
 gsave  2268 1914 0 0 C 2073.99 1287.7 t 0 r /Helvetica findfont 62.6756 sf 0 0 m (0.2) show NC gr 
 gsave  2268 1914 0 0 C 2073.99 1390.26 t 0 r /Helvetica findfont 62.6756 sf 0 0 m (0.4) show NC gr 
 gsave  2268 1914 0 0 C 2073.99 1495.67 t 0 r /Helvetica findfont 62.6756 sf 0 0 m (0.6) show NC gr 
 gsave  2268 1914 0 0 C 2073.99 1598.23 t 0 r /Helvetica findfont 62.6756 sf 0 0 m (0.8) show NC gr 
 gsave  2268 1914 0 0 C 2073.99 1697.94 t 0 r /Helvetica findfont 62.6756 sf 0 0 m (1) show NC gr 
 gsave  2268 1914 0 0 C 2227.83 1564.04 t 90 r /Helvetica findfont 71.2223 sf 0 0 m (\(X,Y\)) show NC gr 
 gsave  2268 1914 0 0 C 2227.83 1527.01 t 90 r /Symbol findfont 71.2223 sf 0 0 m (r) show NC gr 
 gsave  2268 1914 0 0 C 769.2 743.56 t 0 r /Helvetica findfont 54.1289 sf 0 0 m (0.47) show NC gr 
 gsave  2268 1914 0 0 C 769.2 891.703 t 0 r /Helvetica findfont 54.1289 sf 0 0 m (0.65) show NC gr  1 1 1 c black 1 1 1 c
 gsave  2268 1914 0 0 C 769.2 1039.84 t 0 r /Helvetica findfont 54.1289 sf 0 0 m (0.90) show NC gr  black
 gsave  2268 1914 0 0 C 783.445 1187.99 t 0 r /Helvetica findfont 54.1289 sf 0 0 m (0.79) show NC gr 
 gsave  2268 1914 0 0 C 754.956 1187.99 t 0 r /Symbol findfont 54.1289 sf 0 0 m (-) show NC gr 
 gsave  2268 1914 0 0 C 769.2 1336.13 t 0 r /Helvetica findfont 54.1289 sf 0 0 m (0.67) show NC gr 
 gsave  2268 1914 0 0 C 783.445 1484.27 t 0 r /Helvetica findfont 54.1289 sf 0 0 m (0.50) show NC gr 
 gsave  2268 1914 0 0 C 754.956 1484.27 t 0 r /Symbol findfont 54.1289 sf 0 0 m (-) show NC gr  1 1 1 c black 1 1 1 c
 gsave  2268 1914 0 0 C 811.934 1626.72 t 0 r /Helvetica findfont 54.1289 sf 0 0 m (1) show NC gr  black
 gsave  2268 1914 0 0 C 940.134 743.56 t 0 r /Helvetica findfont 54.1289 sf 0 0 m (0.15) show NC gr 
 gsave  2268 1914 0 0 C 954.378 891.703 t 0 r /Helvetica findfont 54.1289 sf 0 0 m (0.62) show NC gr 
 gsave  2268 1914 0 0 C 925.889 891.703 t 0 r /Symbol findfont 54.1289 sf 0 0 m (-) show NC gr 
 gsave  2268 1914 0 0 C 954.378 1039.84 t 0 r /Helvetica findfont 54.1289 sf 0 0 m (0.17) show NC gr 
 gsave  2268 1914 0 0 C 925.889 1039.84 t 0 r /Symbol findfont 54.1289 sf 0 0 m (-) show NC gr 
 gsave  2268 1914 0 0 C 945.832 1187.99 t 0 r /Helvetica findfont 54.1289 sf 0 0 m (0.01) show NC gr 
 gsave  2268 1914 0 0 C 954.378 1336.13 t 0 r /Helvetica findfont 54.1289 sf 0 0 m (0.03) show NC gr 
 gsave  2268 1914 0 0 C 925.889 1336.13 t 0 r /Symbol findfont 54.1289 sf 0 0 m (-) show NC gr  1 1 1 c black 1 1 1 c
 gsave  2268 1914 0 0 C 982.867 1481.42 t 0 r /Helvetica findfont 54.1289 sf 0 0 m (1) show NC gr  black
 gsave  2268 1914 0 0 C 954.378 1629.57 t 0 r /Helvetica findfont 54.1289 sf 0 0 m (0.50) show NC gr 
 gsave  2268 1914 0 0 C 925.889 1629.57 t 0 r /Symbol findfont 54.1289 sf 0 0 m (-) show NC gr 
 gsave  2268 1914 0 0 C 1113.92 743.56 t 0 r /Helvetica findfont 54.1289 sf 0 0 m (0.77) show NC gr 
 gsave  2268 1914 0 0 C 1113.92 891.703 t 0 r /Helvetica findfont 54.1289 sf 0 0 m (0.22) show NC gr 
 gsave  2268 1914 0 0 C 1113.92 1039.84 t 0 r /Helvetica findfont 54.1289 sf 0 0 m (0.75) show NC gr 
 gsave  2268 1914 0 0 C 1128.16 1187.99 t 0 r /Helvetica findfont 54.1289 sf 0 0 m (0.72) show NC gr 
 gsave  2268 1914 0 0 C 1099.67 1187.99 t 0 r /Symbol findfont 54.1289 sf 0 0 m (-) show NC gr  1 1 1 c black 1 1 1 c
 gsave  2268 1914 0 0 C 1156.65 1333.28 t 0 r /Helvetica findfont 54.1289 sf 0 0 m (1) show NC gr  black
 gsave  2268 1914 0 0 C 1128.16 1484.27 t 0 r /Helvetica findfont 54.1289 sf 0 0 m (0.03) show NC gr 
 gsave  2268 1914 0 0 C 1099.67 1484.27 t 0 r /Symbol findfont 54.1289 sf 0 0 m (-) show NC gr 
 gsave  2268 1914 0 0 C 1113.92 1629.57 t 0 r /Helvetica findfont 54.1289 sf 0 0 m (0.67) show NC gr 
 gsave  2268 1914 0 0 C 1301.94 743.56 t 0 r /Helvetica findfont 54.1289 sf 0 0 m (0.77) show NC gr 
 gsave  2268 1914 0 0 C 1273.45 743.56 t 0 r /Symbol findfont 54.1289 sf 0 0 m (-) show NC gr 
 gsave  2268 1914 0 0 C 1301.94 891.703 t 0 r /Helvetica findfont 54.1289 sf 0 0 m (0.29) show NC gr 
 gsave  2268 1914 0 0 C 1273.45 891.703 t 0 r /Symbol findfont 54.1289 sf 0 0 m (-) show NC gr 
 gsave  2268 1914 0 0 C 1301.94 1039.84 t 0 r /Helvetica findfont 54.1289 sf 0 0 m (0.88) show NC gr 
 gsave  2268 1914 0 0 C 1273.45 1039.84 t 0 r /Symbol findfont 54.1289 sf 0 0 m (-) show NC gr  1 1 1 c black 1 1 1 c
 gsave  2268 1914 0 0 C 1330.43 1185.14 t 0 r /Helvetica findfont 54.1289 sf 0 0 m (1) show NC gr  black
 gsave  2268 1914 0 0 C 1301.94 1336.13 t 0 r /Helvetica findfont 54.1289 sf 0 0 m (0.72) show NC gr 
 gsave  2268 1914 0 0 C 1273.45 1336.13 t 0 r /Symbol findfont 54.1289 sf 0 0 m (-) show NC gr 
 gsave  2268 1914 0 0 C 1293.4 1484.27 t 0 r /Helvetica findfont 54.1289 sf 0 0 m (0.01) show NC gr 
 gsave  2268 1914 0 0 C 1301.94 1629.57 t 0 r /Helvetica findfont 54.1289 sf 0 0 m (0.79) show NC gr 
 gsave  2268 1914 0 0 C 1273.45 1629.57 t 0 r /Symbol findfont 54.1289 sf 0 0 m (-) show NC gr 
 gsave  2268 1914 0 0 C 1461.48 743.56 t 0 r /Helvetica findfont 54.1289 sf 0 0 m (0.54) show NC gr 
 gsave  2268 1914 0 0 C 1461.48 891.703 t 0 r /Helvetica findfont 54.1289 sf 0 0 m (0.45) show NC gr  1 1 1 c black 1 1 1 c
 gsave  2268 1914 0 0 C 1504.21 1037 t 0 r /Helvetica findfont 54.1289 sf 0 0 m (1) show NC gr  black
 gsave  2268 1914 0 0 C 1475.73 1187.99 t 0 r /Helvetica findfont 54.1289 sf 0 0 m (0.88) show NC gr 
 gsave  2268 1914 0 0 C 1447.24 1187.99 t 0 r /Symbol findfont 54.1289 sf 0 0 m (-) show NC gr 
 gsave  2268 1914 0 0 C 1461.48 1336.13 t 0 r /Helvetica findfont 54.1289 sf 0 0 m (0.75) show NC gr 
 gsave  2268 1914 0 0 C 1475.73 1484.27 t 0 r /Helvetica findfont 54.1289 sf 0 0 m (0.17) show NC gr 
 gsave  2268 1914 0 0 C 1447.24 1484.27 t 0 r /Symbol findfont 54.1289 sf 0 0 m (-) show NC gr  1 1 1 c black 1 1 1 c
 gsave  2268 1914 0 0 C 1461.48 1629.57 t 0 r /Helvetica findfont 54.1289 sf 0 0 m (0.90) show NC gr  black
 gsave  2268 1914 0 0 C 1640.96 743.56 t 0 r /Helvetica findfont 54.1289 sf 0 0 m (0.01) show NC gr  1 1 1 c black 1 1 1 c
 gsave  2268 1914 0 0 C 1678 888.854 t 0 r /Helvetica findfont 54.1289 sf 0 0 m (1) show NC gr  black
 gsave  2268 1914 0 0 C 1635.26 1039.84 t 0 r /Helvetica findfont 54.1289 sf 0 0 m (0.45) show NC gr 
 gsave  2268 1914 0 0 C 1649.51 1187.99 t 0 r /Helvetica findfont 54.1289 sf 0 0 m (0.29) show NC gr 
 gsave  2268 1914 0 0 C 1621.02 1187.99 t 0 r /Symbol findfont 54.1289 sf 0 0 m (-) show NC gr 
 gsave  2268 1914 0 0 C 1635.26 1336.13 t 0 r /Helvetica findfont 54.1289 sf 0 0 m (0.22) show NC gr 
 gsave  2268 1914 0 0 C 1649.51 1484.27 t 0 r /Helvetica findfont 54.1289 sf 0 0 m (0.62) show NC gr 
 gsave  2268 1914 0 0 C 1621.02 1484.27 t 0 r /Symbol findfont 54.1289 sf 0 0 m (-) show NC gr 
 gsave  2268 1914 0 0 C 1635.26 1629.57 t 0 r /Helvetica findfont 54.1289 sf 0 0 m (0.65) show NC gr  1 1 1 c black 1 1 1 c
 gsave  2268 1914 0 0 C 1851.78 740.711 t 0 r /Helvetica findfont 54.1289 sf 0 0 m (1) show NC gr  black
 gsave  2268 1914 0 0 C 1814.74 891.703 t 0 r /Helvetica findfont 54.1289 sf 0 0 m (0.01) show NC gr 
 gsave  2268 1914 0 0 C 1809.05 1039.84 t 0 r /Helvetica findfont 54.1289 sf 0 0 m (0.54) show NC gr 
 gsave  2268 1914 0 0 C 1823.29 1187.99 t 0 r /Helvetica findfont 54.1289 sf 0 0 m (0.77) show NC gr 
 gsave  2268 1914 0 0 C 1794.8 1187.99 t 0 r /Symbol findfont 54.1289 sf 0 0 m (-) show NC gr 
 gsave  2268 1914 0 0 C 1809.05 1336.13 t 0 r /Helvetica findfont 54.1289 sf 0 0 m (0.77) show NC gr 
 gsave  2268 1914 0 0 C 1809.05 1484.27 t 0 r /Helvetica findfont 54.1289 sf 0 0 m (0.15) show NC gr 
 gsave  2268 1914 0 0 C 1809.05 1629.57 t 0 r /Helvetica findfont 54.1289 sf 0 0 m (0.47) show NC gr 
 gsave  2268 1914 0 0 C 977.169 1840.38 t 0 r /Helvetica findfont 71.2223 sf 0 0 m ( Internal) show NC gr 
 gsave  2268 1914 0 0 C 735.014 1840.38 t 0 r /Helvetica-BoldOblique findfont 71.2223 sf 0 0 m (ATLAS) show NC gr 
 gsave  2268 1914 0 0 C 735.014 1763.46 t 0 r /Helvetica findfont 62.6756 sf 0 0 m (Expected) show NC gr 
 gsave  2268 1914 0 0 C 2019.86 1871.72 t 0 r /Helvetica findfont 42.7334 sf 0 0 m (\2551) show NC gr 
 gsave  2268 1914 0 0 C 1358.92 1840.38 t 0 r /Helvetica findfont 62.6756 sf 0 0 m ( = 13 TeV, 36.1 \255 139 fb) show NC gr 
 gsave  2268 1914 0 0 C 1324.73 1840.38 t 0 r /Helvetica-Oblique findfont 62.6756 sf 0 0 m (s) show NC gr  6 lw 1302 1875 m 8 -37 d s 3 lw 1310 1838 m 6 54 d s 1316 1892 m 43 X s
 gsave  2268 1914 0 0 C 1877.42 1763.46 t 0 r /Helvetica findfont 62.6756 sf 0 0 m (| < 2.5) show NC gr 
 gsave  2268 1914 0 0 C 1843.23 1732.13 t 0 r /Helvetica-Oblique findfont 42.7334 sf 0 0 m (H) show NC gr 
 gsave  2268 1914 0 0 C 1806.2 1763.46 t 0 r /Helvetica-Oblique findfont 62.6756 sf 0 0 m (y) show NC gr 
 gsave  2268 1914 0 0 C 1353.22 1763.46 t 0 r /Helvetica findfont 62.6756 sf 0 0 m ( = 125.09 GeV, |) show NC gr 
 gsave  2268 1914 0 0 C 1319.04 1746.37 t 0 r /Helvetica-Oblique findfont 42.7334 sf 0 0 m (H) show NC gr 
 gsave  2268 1914 0 0 C 1264.91 1763.46 t 0 r /Helvetica-Oblique findfont 62.6756 sf 0 0 m (m) show NC gr 
 gr  gr showpage
end
%%EOF
